{
    "$schema": "http://json-schema.org/draft-04/schema#",
    "id": "http://sap.com/schema/sap/sports/imp/module/staging/private/lib/teamEntityType",
    "version": "1",
    "type": "object",
    "required": [
        "SURROGATE_TEAM_ID",
        "PROVIDER_ID",
        "NAME",
        "TEAM_GENDER",
        "AGE"
    ],
    "properties": {
        "PROVIDER_ID": {
            "type": "string",
            "minLength": 1,
            "maxLength": 32,
            "primaryKey": true
        },
        "SURROGATE_TEAM_ID": {
            "type": "string",
            "minLength": 32,
            "maxLength": 32,
            "readOnly": true,
            "primaryKey": true
        },
        "PROCESSING_LOG_ID": {
            "type": "string",
            "minLength": 32,
            "maxLength": 32,
            "readOnly": true
        },
        "SURROGATE_CLUB_ID": {
            "type": "string",
            "minLength": 32,
            "maxLength": 32,
            "readOnly": true
        },
        "SPORTS_TYPE": {
            "type": [
                "string"
            ],
            "code": {
                "area": "ADMIN",
                "key": "SportsType"
            }
        },
        "NAME": {
            "type": [
                "string"
            ],
            "minLength": 0,
            "maxLength": 50
        },
        "AGE": {
            "type": [
                "string"
            ],
            "code": {
                "area": "COMP_TYPES",
                "key": "Age"
            }
        },
        "SHORT_NAME": {
            "type": [
                "string",
                "null"
            ],
            "minLength": 0,
            "maxLength": 20
        },
        "TEAM_GENDER": {
            "type": [
                "string"
            ],
            "code": {
                "area": "COMP_TYPES",
                "key": "Gender"
            }
        },
        "PROVIDER_CLUB_ID": {
            "type": "string",
            "minLength": 1,
            "maxLength": 32
        },
        "PROVIDER_TEAM_ID": {
            "type": "string",
            "minLength": 1,
            "maxLength": 32
        }
    }
}