{
	"PROVIDER_ID": "ACME",
	"SURROGATE_CLUB_ID": "C0123456789012345678901234567890",
	"SPORTS_TYPE": "Soccer",
	"NAME": "FC Neustadt e.V.",
	"SHORT_NAME": "FC Neustadt",
	"IS_FEDERATION": 0,
	"COUNTRY": "DEU",
	"PROVIDER_CLUB_ID": "FC_NEUSTADT_001"
}